2.513274e-02	1.179363e-01	5.274269e-02
3.554307e-02	5.129472e-01	1.813542e-01
4.353119e-02	4.895116e-01	2.447558e-01
5.478589e-02	5.294768e-01	1.155413e-01
6.997858e-02	2.005036e+00	3.296259e-01
8.787416e-02	2.264671e+00	2.668940e-01
1.096448e-01	4.512752e+00	4.172040e-01
1.363874e-01	6.927460e+00	4.499869e-01
1.701758e-01	1.057612e+01	4.941898e-01
2.129272e-01	1.582121e+01	5.327279e-01
2.656960e-01	2.301669e+01	5.618842e-01
3.321298e-01	3.188242e+01	5.554226e-01
4.151976e-01	4.314378e+01	5.418431e-01
5.184612e-01	5.769235e+01	5.214678e-01
6.479033e-01	7.473073e+01	4.831302e-01
8.104009e-01	8.728808e+01	4.036489e-01
1.012987e+00	9.368625e+01	3.114426e-01
1.266003e+00	9.708530e+01	2.309912e-01
1.576016e+00	1.125986e+02	1.971247e-01
1.934797e+00	1.368625e+02	2.478466e-01
2.317192e+00	1.820008e+02	6.857271e-01
