2.513274e-02	9.570070e-01	4.279865e-01
3.554307e-02	1.270393e+00	4.491517e-01
4.353119e-02	6.444488e+00	3.222244e+00
5.478589e-02	2.169037e+00	4.733226e-01
6.997858e-02	4.249821e+00	6.986663e-01
8.787416e-02	7.075428e+00	8.338472e-01
1.096448e-01	9.214300e+00	8.518624e-01
1.363874e-01	1.329015e+01	8.632883e-01
1.701758e-01	1.546967e+01	7.228501e-01
2.129272e-01	1.956920e+01	6.589293e-01
2.656960e-01	2.499509e+01	6.101810e-01
3.321298e-01	3.081351e+01	5.368011e-01
4.151976e-01	3.646110e+01	4.579153e-01
5.184612e-01	4.089573e+01	3.696471e-01
6.479033e-01	4.621803e+01	2.987971e-01
8.104009e-01	4.927733e+01	2.278746e-01
1.012987e+00	5.097089e+01	1.694433e-01
1.266003e+00	5.400951e+01	1.285027e-01
1.576016e+00	6.285735e+01	1.100434e-01
1.934797e+00	7.079610e+01	1.282058e-01
2.317192e+00	8.759841e+01	3.300458e-01
