2.513274e-02	3.454302e-01	1.544811e-01
3.554307e-02	9.885424e-01	3.495025e-01
4.353119e-02	3.325697e+00	1.662848e+00
5.478589e-02	1.087521e+00	2.373165e-01
6.997858e-02	2.349917e+00	3.863240e-01
8.787416e-02	3.695332e+00	4.354990e-01
1.096448e-01	5.390354e+00	4.983384e-01
1.363874e-01	7.421232e+00	4.820608e-01
1.701758e-01	8.058283e+00	3.765388e-01
2.129272e-01	1.063761e+01	3.581870e-01
2.656960e-01	1.306808e+01	3.190185e-01
3.321298e-01	1.599490e+01	2.786467e-01
4.151976e-01	1.935626e+01	2.430954e-01
5.184612e-01	2.300253e+01	2.079146e-01
6.479033e-01	2.723992e+01	1.761046e-01
8.104009e-01	3.181853e+01	1.471394e-01
1.012987e+00	3.791425e+01	1.260389e-01
1.266003e+00	4.707784e+01	1.120104e-01
1.576016e+00	6.627794e+01	1.160318e-01
1.934797e+00	9.585051e+01	1.735773e-01
2.317192e+00	1.418560e+02	5.344731e-01
