1.758919839569442201e-01 1.699272186807642981e+01 1.618223155030321081e+01
2.345226452759256452e-01 2.040859299373747149e+01 1.944811084856317862e+01
2.931533065949070704e-01 1.131997229634124302e+01 9.759678340883093384e+00
3.517839679138884956e-01 1.572665848598389005e+01 1.422550158676270193e+01
4.104146292328698653e-01 2.319037104101835212e+01 2.153365506722214207e+01
4.690452905518512905e-01 3.295718555511334813e+01 3.113969124039182290e+01
5.276759518708327157e-01 4.496431763304246232e+01 4.307719908442728496e+01
5.863066131898141409e-01 5.883547920033087308e+01 5.694269007243896397e+01
6.449372745087955661e-01 7.561905358663608467e+01 7.372519038513121359e+01
7.035679358277769913e-01 9.621633524487032219e+01 9.427344961313070826e+01
7.621985971467583054e-01 1.199456149808399914e+02 1.179889842858483462e+02
8.208292584657397306e-01 1.460103811246529801e+02 1.440901164046798897e+02
8.794599197847211558e-01 1.748443725126392678e+02 1.729728857018953079e+02
9.380905811037025810e-01 2.070277471069525745e+02 2.052118836323071491e+02
9.967212424226840062e-01 2.416039616433916990e+02 2.398623453404846941e+02
1.055351903741665431e+00 2.818326409400488615e+02 2.801252819787627004e+02
1.113982565060646746e+00 3.270702443118456699e+02 3.253798764871348794e+02
1.172613226379628060e+00 3.753334327432077089e+02 3.736822268493081083e+02
1.231243887698609596e+00 4.223617791847303238e+02 4.207977498847161542e+02
1.289874549017590910e+00 4.827463066863882659e+02 4.811855571487969314e+02
1.348505210336572446e+00 5.400402037689026429e+02 5.385357059596983618e+02
1.407135871655553760e+00 6.068393916536865618e+02 6.053555582849721759e+02
1.465766532974535075e+00 6.767535133849286240e+02 6.752923334240377926e+02
1.524397194293516611e+00 7.453809182273743090e+02 7.439694171210713876e+02

