1.940443574556529049e-01 4.990930079426183497e+00 2.091779644580119779e+00
2.587258099408705214e-01 4.394182819239722093e+00 2.794238045275862170e+00
3.234072624260881379e-01 5.258123741337913160e+00 4.147228447448746635e+00
3.880887149113057544e-01 6.782290950634529025e+00 5.926412855598088392e+00
4.527701673965234264e-01 8.671720394312625757e+00 8.002936539987269171e+00
5.174516198817410428e-01 1.130600809834370857e+01 1.073350106740652521e+01
5.821330723669586593e-01 1.416708910100091323e+01 1.368182189038221885e+01
6.468145248521762758e-01 1.766615094604749814e+01 1.723943279279450991e+01
7.114959773373938923e-01 2.169704568925765287e+01 2.131753591491571953e+01
7.761774298226115087e-01 2.655578065246452368e+01 2.620956764747668544e+01
8.408588823078292362e-01 3.211942600883748611e+01 3.180091018442284678e+01
9.055403347930468527e-01 3.855625619936638770e+01 3.825931993621318838e+01
9.702217872782644692e-01 4.627452524734740535e+01 4.598869883812872672e+01
1.034903239763482086e+00 5.457760898617179635e+01 5.430451490937504389e+01
1.099584692248699813e+00 6.360306734946908591e+01 6.334333608493819412e+01
1.164266144733917541e+00 7.372977364160573188e+01 7.347988821425772699e+01
1.228947597219135046e+00 8.522722272393247067e+01 8.498336531273456274e+01
1.293629049704352774e+00 9.805949053090616019e+01 9.782044656537379979e+01
1.358310502189570279e+00 1.124632861541286957e+02 1.122268476951344525e+02
1.422991954674788007e+00 1.286648320760288016e+02 1.284282422978439229e+02
1.487673407160005512e+00 1.457707885340165035e+02 1.455338167252079984e+02
1.552354859645223240e+00 1.650910601809526668e+02 1.648511818945898142e+02
1.617036312130440967e+00 1.858878115307534244e+02 1.856453502076001882e+02
1.681717764615658472e+00 2.087724101458715040e+02 2.085261255803598033e+02

