1.758919839569442201e-01 6.695555224120555593e+00 6.341216324162435747e+00
2.345226452759256452e-01 1.314489898709138593e+01 1.282961818219624028e+01
2.931533065949070704e-01 2.514013590359316552e+01 2.474608078006739476e+01
3.517839679138884956e-01 4.316804392249085254e+01 4.269211079425239319e+01
4.104146292328698653e-01 6.827579077805231123e+01 6.772709699116661852e+01
4.690452905518512905e-01 1.016485994549039162e+02 1.010325533946043208e+02
5.276759518708327157e-01 1.444679063414379812e+02 1.437899877124933710e+02
5.863066131898141409e-01 1.979201649512545202e+02 1.971809043993122543e+02
6.449372745087955661e-01 2.631778680243861004e+02 2.623868060998785836e+02
7.035679358277769913e-01 3.414308337617727034e+02 3.405891943889423032e+02
7.621985971467583054e-01 4.338619213933910146e+02 4.329695701762409499e+02
8.208292584657397306e-01 5.416527247453296923e+02 5.407094339408456563e+02
8.794599197847211558e-01 6.659845183640804862e+02 6.649902858730848720e+02
9.380905811037025810e-01 8.080372267058362468e+02 8.069936259638935780e+02
9.967212424226840062e-01 9.689881791531792032e+02 9.679009540629538151e+02
1.055351903741665431e+00 1.150024620430861432e+03 1.148893769917636519e+03
1.113982565060646746e+00 1.352328050156076415e+03 1.351153573199746006e+03
1.172613226379628060e+00 1.577080561927661847e+03 1.575861863524294677e+03
1.231243887698609596e+00 1.825464792342766486e+03 1.824200140462957506e+03
1.289874549017590910e+00 2.098660509766073574e+03 2.097349903553870263e+03
1.348505210336572446e+00 2.397849213623569085e+03 2.396492652308887045e+03

