1.230280400926574008e-01 1.039763939759870226e+01 9.078392815524745529e+00
1.845420601389861082e-01 2.117988712564519460e+01 1.990266921745670459e+01
2.460560801853148016e-01 4.868675164339313710e+01 4.694808121705752768e+01
3.075701002316434951e-01 9.364368799881586369e+01 9.159907702433766019e+01
3.690841202779722163e-01 1.604310457936258274e+02 1.581925896134534355e+02
4.305981403243009376e-01 2.534452686191418138e+02 2.511171372221935485e+02
4.921121603706296033e-01 3.771591155623161171e+02 3.747612331091053761e+02
5.536261804169583245e-01 5.359617046304517771e+02 5.335133882802363132e+02
6.151402004632869902e-01 7.342629046328181630e+02 7.317621126031656331e+02
6.766542205096156559e-01 9.764506197119397939e+02 9.738959153200607943e+02
7.381682405559443216e-01 1.266906713989996888e+03 1.264303305306456195e+03
7.996822606022730984e-01 1.610008433231411573e+03 1.607372791211454114e+03
8.611962806486017641e-01 2.010160725519040852e+03 2.007492881538203847e+03
9.227103006949304298e-01 2.471751196905663164e+03 2.469052084692350036e+03
9.842243207412592065e-01 2.999167147643411226e+03 2.996438909012389558e+03
1.045738340787587983e+00 3.596799217624716675e+03 3.594041862789369134e+03
1.107252360833916649e+00 4.269035918076580856e+03 4.266249454280014106e+03
1.168766380880245315e+00 5.020263674488130164e+03 5.017450191715752226e+03
1.230280400926573980e+00 5.854871829773494937e+03 5.852032583309020083e+03
1.291794420972902646e+00 6.777250144503301271e+03 6.774385137257774659e+03
1.353308441019231312e+00 7.791787127608303308e+03 7.788896361748773415e+03
1.414822461065559978e+00 8.902871897088840342e+03 8.899954764960020839e+03
1.476336481111888865e+00 1.011491094090055594e+04 1.011194885506255923e+04
1.537850501158217531e+00 1.143227417911913108e+04 1.142926714022189844e+04
