1.293629049704352607e-01 9.102111831831967592e+00 5.697782675003857378e+00
1.940443574556529049e-01 1.508932588252538132e+01 1.238354532704449795e+01
2.587258099408705214e-01 3.186427086617839777e+01 2.919571397603895591e+01
3.234072624260881379e-01 5.929634891350458759e+01 5.695314611895086188e+01
3.880887149113057544e-01 1.005529679050601430e+02 9.834946910632827155e+01
4.527701673965234264e-01 1.581694071413590450e+02 1.561124734923832023e+02
5.174516198817410428e-01 2.349831971298300743e+02 2.329699456993883473e+02
5.821330723669586593e-01 3.336379207606022987e+02 3.316496702752716601e+02
6.468145248521762758e-01 4.568492140952573095e+02 4.548794308190367133e+02
7.114959773373938923e-01 6.073381624706610182e+02 6.053870104078268923e+02
7.761774298226115087e-01 7.878398516865256624e+02 7.859001918126239161e+02
8.408588823078292362e-01 1.001076515038386333e+03 9.991467576152206220e+02
9.055403347930468527e-01 1.249774570495890657e+03 1.247854490275411308e+03
9.702217872782644692e-01 1.536674156451797899e+03 1.534751172171461121e+03
1.034903239763482086e+00 1.864490459774640613e+03 1.862564585625479822e+03
1.099584692248699813e+00 2.235951267154639936e+03 2.234022512919879318e+03
1.164266144733917541e+00 2.653789858834165443e+03 2.651852736308364001e+03
1.228947597219135046e+00 3.120733498178711670e+03 3.118783038023465451e+03
1.293629049704352774e+00 3.639504995001381303e+03 3.637541200281820238e+03
1.358310502189570279e+00 4.212832132330334389e+03 4.210855005287949098e+03
1.422991954674788007e+00 4.843445950806448309e+03 4.841452235236997694e+03
1.487673407160005512e+00 5.534088518351284620e+03 5.532060672316784803e+03
1.552354859645223240e+00 6.287470074678832134e+03 6.285408098709308433e+03
1.617036312130440967e+00 7.106318402102308028e+03 7.104222296591923623e+03
