1.758919839569442201e-01 6.662237401278182425e+00 6.341216324162435747e+00
2.345226452759256452e-01 1.323475298138670553e+01 1.282961818219624028e+01
2.931533065949070704e-01 2.531918958259146990e+01 2.474608078006739476e+01
3.517839679138884956e-01 4.342495066857492958e+01 4.269211079425239319e+01
4.104146292328698653e-01 6.861200234726680947e+01 6.772709699116661852e+01
4.690452905518512905e-01 1.020611039295973228e+02 1.010325533946043208e+02
5.276759518708327157e-01 1.449184482900716660e+02 1.437899877124933710e+02
5.863066131898141409e-01 1.984056650945632327e+02 1.971809043993122543e+02
6.449372745087955661e-01 2.636838917979848134e+02 2.623868060998785836e+02
7.035679358277769913e-01 3.419585712072677666e+02 3.405891943889423032e+02
7.621985971467583054e-01 4.343964051817223435e+02 4.329695701762409499e+02
8.208292584657397306e-01 5.421861161466870271e+02 5.407094339408456563e+02
8.794599197847211558e-01 6.665167988977885898e+02 6.649902858730848720e+02
9.380905811037025810e-01 8.085581930979421941e+02 8.069936259638935780e+02
9.967212424226840062e-01 9.694949856908737047e+02 9.679009540629538151e+02
1.055351903741665431e+00 1.150517257393338696e+03 1.148893769917636519e+03
1.113982565060646746e+00 1.352806510404282790e+03 1.351153573199746006e+03
1.172613226379628060e+00 1.577535613307908534e+03 1.575861863524294677e+03
1.231243887698609596e+00 1.825891375354561205e+03 1.824200140462957506e+03
1.289874549017590910e+00 2.099058620436448564e+03 2.097349903553870263e+03
1.348505210336572446e+00 2.398218848915593753e+03 2.396492652308887045e+03
1.407135871655553760e+00 2.724553560899280001e+03 2.722809886219037708e+03
1.465766532974535075e+00 3.079250651322326121e+03 3.077483104758671288e+03
1.524397194293516611e+00 3.463485913515172342e+03 3.461693807388660844e+03
