1.940443574556529049e-01 3.384198097179646680e+01 2.936797624792374251e+01
2.587258099408705214e-01 3.187270600354343131e+01 2.878369069207599651e+01
3.234072624260881379e-01 2.130438781299045914e+01 1.768960420021604918e+01
3.880887149113057544e-01 2.857770974754075866e+01 2.584226041806437735e+01
4.527701673965234264e-01 4.166838667642110750e+01 3.922453438545286275e+01
5.174516198817410428e-01 5.839038363257713371e+01 5.617796040776644872e+01
5.821330723669586593e-01 8.023597252269539126e+01 7.814690440653146197e+01
6.468145248521762758e-01 1.050004903048337610e+02 1.031003987244842648e+02
7.114959773373938923e-01 1.355640814255112048e+02 1.337836355910256998e+02
7.761774298226115087e-01 1.728354171998666686e+02 1.711275677153805361e+02
8.408588823078292362e-01 2.151017787132885246e+02 2.134837107259100151e+02
9.055403347930468527e-01 2.624719022376137332e+02 2.609505278468438405e+02
9.702217872782644692e-01 3.187345783542012896e+02 3.172546960378385279e+02
1.034903239763482086e+00 3.734485670750563031e+02 3.720911153656714987e+02
1.099584692248699813e+00 4.409178736951155315e+02 4.396113897597373921e+02
1.164266144733917541e+00 5.046387529724468664e+02 5.034368530481772837e+02
1.228947597219135046e+00 5.867254709179882184e+02 5.855482494336927175e+02
1.293629049704352774e+00 6.628039099427869587e+02 6.617068905570858988e+02
1.358310502189570279e+00 7.627065710552893734e+02 7.616196642458525048e+02
1.422991954674788007e+00 8.641119480137546134e+02 8.630544467376952298e+02
1.487673407160005512e+00 9.689323466672551604e+02 9.679015694083205972e+02
1.552354859645223240e+00 1.087143729123540879e+03 1.086126210388210438e+03
1.617036312130440967e+00 1.212716444815907380e+03 1.211713857853447507e+03
1.681717764615658472e+00 1.342250964126335475e+03 1.341270969158396838e+03

