1.293629049704352607e-01 6.699834349803621691e-01 3.554749241706756657e-01
1.940443574556529049e-01 6.910313471830423770e-01 4.943435988892052046e-01
2.587258099408705214e-01 9.735027981044725998e-01 8.341796835286779954e-01
3.234072624260881379e-01 1.530935764080108230e+00 1.391007624480133265e+00
3.880887149113057544e-01 2.467508719062269318e+00 2.313724744438360403e+00
4.527701673965234264e-01 3.809579184187702694e+00 3.633652473136659733e+00
5.174516198817410428e-01 5.607663046178154254e+00 5.407207047766489083e+00
5.821330723669586593e-01 7.907493691410272696e+00 7.682647396190026789e+00
6.468145248521762758e-01 1.076624763788394468e+01 1.052257395345425905e+01
7.114959773373938923e-01 1.425119346772812001e+01 1.398971162323252315e+01
7.761774298226115087e-01 1.842494908082781180e+01 1.814678438661315951e+01
8.408588823078292362e-01 2.335048621652261858e+01 2.305651563346716770e+01
9.055403347930468527e-01 2.909140088643332689e+01 2.878162836194575647e+01
9.702217872782644692e-01 3.570686169427668943e+01 3.538484530293942498e+01
1.034903239763482086e+00 4.326162634969217180e+01 4.292888900023235266e+01
1.099584692248699813e+00 5.181993643602810096e+01 5.147648186360420652e+01
1.164266144733917541e+00 6.144402028743241573e+01 6.109034620490695744e+01
1.228947597219135046e+00 7.219307610006130460e+01 7.183320426313164830e+01
1.293629049704352774e+00 8.413384509183552495e+01 8.376777822217995606e+01
1.358310502189570279e+00 9.732905024434130326e+01 9.695679022369380107e+01
1.422991954674788007e+00 1.118414142548461285e+02 1.114629623764694344e+02

