1.293629049704352607e-01 2.647387627098395146e+00 6.321497511706456462e-01
1.940443574556529049e-01 1.977891848030327582e+00 9.233775958725549682e-01
2.587258099408705214e-01 2.403121474198147034e+00 1.677239796529248927e+00
3.234072624260881379e-01 3.646366965232755053e+00 3.023950022499012569e+00
3.880887149113057544e-01 5.803612236665843582e+00 5.185885725259210766e+00
4.527701673965234264e-01 8.814543603279524575e+00 8.211941883473652837e+00
5.174516198817410428e-01 1.283151329858542233e+01 1.223563800507674415e+01
5.821330723669586593e-01 1.798945859793392543e+01 1.739948911141708265e+01
6.468145248521762758e-01 2.443262956420730703e+01 2.384602030715496213e+01
7.114959773373938923e-01 3.230063691659244540e+01 3.171775529886414091e+01
7.761774298226115087e-01 4.173571679701408499e+01 4.115721695298346106e+01
8.408588823078292362e-01 5.288081045881284581e+01 5.230692760773085581e+01
9.055403347930468527e-01 6.587870783991506585e+01 6.530940925626313742e+01
9.702217872782644692e-01 8.087656363420667560e+01 8.030718365884575860e+01
1.034903239763482086e+00 9.801219840112020165e+01 9.744277241407476708e+01
1.099584692248699813e+00 1.174281445277020168e+02 1.168586970055402787e+02
1.164266144733917541e+00 1.392695584006293359e+02 1.386974788332485389e+02
1.228947597219135046e+00 1.636786789635439732e+02 1.631016392352970570e+02
1.293629049704352774e+00 1.907956923088781593e+02 1.902136995031503091e+02
1.358310502189570279e+00 2.207631215805744205e+02 2.201761808926140134e+02
1.422991954674788007e+00 2.537245944593601052e+02 2.531316046318524400e+02
1.487673407160005512e+00 2.898273310964979714e+02 2.892224919273407409e+02
1.552354859645223240e+00 3.292080513681467551e+02 3.285913639683432166e+02
1.617036312130440967e+00 3.720092767344271465e+02 3.713807419303286110e+02

