1.758919839569442201e-01 1.276807386702311753e+01 1.207710298301349638e+01
2.345226452759256452e-01 1.509722885473687803e+01 1.459503862682296571e+01
2.931533065949070704e-01 2.268648855273669440e+01 2.215946140786801521e+01
3.517839679138884956e-01 2.999465979850609187e+01 2.951528842792098573e+01
4.104146292328698653e-01 4.105643489198639884e+01 4.057057482849199204e+01
4.690452905518512905e-01 5.270745459985335657e+01 5.224041379539657726e+01
5.276759518708327157e-01 6.794326378281822088e+01 6.749166191616552624e+01
5.863066131898141409e-01 8.523191867059213678e+01 8.479675561685142782e+01
6.449372745087955661e-01 1.057435326562411291e+02 1.053247186589185134e+02
7.035679358277769913e-01 1.292664415792526711e+02 1.288603662497105518e+02
7.621985971467583054e-01 1.560246446845557386e+02 1.556343833672151220e+02
8.208292584657397306e-01 1.873390505172878306e+02 1.869599159673332451e+02
8.794599197847211558e-01 2.228381624935865659e+02 2.224676682296943682e+02
9.380905811037025810e-01 2.633814532798785990e+02 2.630189725628130191e+02
9.967212424226840062e-01 3.093293724433865464e+02 3.089731396870633944e+02
1.055351903741665431e+00 3.611389587796801379e+02 3.607864471854690578e+02
1.113982565060646746e+00 4.201155815541420111e+02 4.197629866450399732e+02
1.172613226379628060e+00 4.842696108493339011e+02 4.839197560415570933e+02
1.231243887698609596e+00 5.551676144613096540e+02 5.548198078680526351e+02
1.289874549017590910e+00 6.316345113452048281e+02 6.312897718769399944e+02
1.348505210336572446e+00 7.182116183722753249e+02 7.178656693966592002e+02
1.407135871655553760e+00 8.111697638701165260e+02 8.108236250625285493e+02
1.465766532974535075e+00 9.137718473567083493e+02 9.134217482060091697e+02
1.524397194293516611e+00 1.025041856980387365e+03 1.024687271835763113e+03

