1.758919839569442201e-01 8.172164814359091167e+01 8.091115775151601497e+01
2.345226452759256452e-01 9.820929308370618571e+01 9.724055424281590376e+01
2.931533065949070704e-01 5.041011789600220538e+01 4.879839170441546514e+01
3.517839679138884956e-01 7.267345408912453308e+01 7.112750793381353276e+01
4.104146292328698653e-01 1.093704915479998903e+02 1.076682753361107245e+02
4.690452905518512905e-01 1.575596917822772411e+02 1.556984562019591749e+02
5.276759518708327157e-01 2.173116659299153639e+02 2.153859954221365456e+02
5.863066131898141409e-01 2.866398422314562140e+02 2.847134503621948625e+02
6.449372745087955661e-01 3.705485188056506445e+02 3.686259519256560111e+02
7.035679358277769913e-01 4.733352149292239801e+02 4.713672480656538255e+02
7.621985971467583054e-01 5.919231239885554032e+02 5.899449214292416173e+02
8.208292584657397306e-01 7.223892685384996639e+02 7.204505820233996474e+02
8.794599197847211558e-01 8.667517479749276390e+02 8.648644285094758288e+02
9.380905811037025810e-01 1.027888813915915762e+03 1.026059418161536541e+03
9.967212424226840062e-01 1.201064782332088953e+03 1.199311726702424039e+03
1.055351903741665431e+00 1.402343668114079946e+03 1.400626409893813616e+03
1.113982565060646746e+00 1.628598411276926299e+03 1.626899382435675307e+03
1.172613226379628060e+00 1.870069863697353412e+03 1.868411134246538268e+03
1.231243887698609596e+00 2.105559171650267672e+03 2.103988749423581794e+03
1.289874549017590910e+00 2.407494241232073364e+03 2.405927785743983350e+03
1.348505210336572446e+00 2.694187976400658499e+03 2.692678529798490672e+03
1.407135871655553760e+00 3.028266028183593335e+03 3.026777791424861789e+03
1.465766532974535075e+00 3.377926802808794946e+03 3.376461667120184757e+03
1.524397194293516611e+00 3.721262102820062410e+03 3.719847085605353186e+03

