1.230280400926574008e-01 1.911899214744609665e+00 1.007317009228739346e+00
1.845420601389861082e-01 2.040533121417311690e+00 1.483583461945895188e+00
2.460560801853148016e-01 3.218490043753724272e+00 2.718389955566856475e+00
3.075701002316434951e-01 5.396441033252724395e+00 4.873290715358991498e+00
3.690841202779722163e-01 8.934948038120511526e+00 8.341097895266734952e+00
4.305981403243009376e-01 1.385200155357396312e+01 1.321312113876497740e+01
4.921121603706296033e-01 2.036514255512698313e+01 1.969204982260688297e+01
5.536261804169583245e-01 2.870393054914894293e+01 2.800742971130128822e+01
6.151402004632869902e-01 3.910581653186518736e+01 3.838882423903458374e+01
6.766542205096156559e-01 5.180132823028758082e+01 5.106579511244932945e+01
7.381682405559443216e-01 6.701943208380748729e+01 6.626790300419438040e+01
7.996822606022730984e-01 8.498465678222386543e+01 8.422470793866656891e+01
8.611962806486017641e-01 1.059340678139965632e+02 1.051657695176915013e+02
9.227103006949304298e-01 1.300971644399999718e+02 1.293206470583533587e+02
9.842243207412592065e-01 1.577034135493945826e+02 1.569188996803260920e+02
1.045738340787587983e+00 1.889825741787304025e+02 1.881900863629956859e+02
1.107252360833916649e+00 2.241642117958062954e+02 2.233637659838744014e+02
1.168766380880245315e+00 2.634787155922771262e+02 2.626694973450698853e+02
1.230280400926573980e+00 3.071553103594562799e+02 3.063368391919245823e+02
1.291794420972902646e+00 3.554230685226027049e+02 3.545953502263929522e+02
1.353308441019231312e+00 4.085115502507044880e+02 4.076745891168120011e+02
1.414822461065559978e+00 4.666505461450587404e+02 4.658041145051496983e+02
1.476336481111888865e+00 5.300758465069610565e+02 5.292134850124540435e+02
1.537850501158217531e+00 5.990105495200806445e+02 5.981322592430112763e+02

