1.758919839569442201e-01 8.741643159316126344e+00 8.051401988675666033e+00
2.345226452759256452e-01 1.023171278893240022e+01 9.730025751215311658e+00
2.931533065949070704e-01 1.529959821770968986e+01 1.477297427191201074e+01
3.517839679138884956e-01 2.015594843182233831e+01 1.967685895194732737e+01
4.104146292328698653e-01 2.753269996412258180e+01 2.704704988566133395e+01
4.690452905518512905e-01 3.529382337897985877e+01 3.482694253026437536e+01
5.276759518708327157e-01 4.544592044868382885e+01 4.499444127744369126e+01
5.863066131898141409e-01 5.696623555885160783e+01 5.653117041123428521e+01
6.449372745087955661e-01 7.063521247056137042e+01 7.021647910594570874e+01
7.035679358277769913e-01 8.631291744624103046e+01 8.590691083314035836e+01
7.621985971467583054e-01 1.041464572384463168e+02 1.037562555781434099e+02
8.208292584657397306e-01 1.250190261317380163e+02 1.246399439782221634e+02
8.794599197847211558e-01 1.486822260618204439e+02 1.483117788197962170e+02
9.380905811037025810e-01 1.757084199995618405e+02 1.753459817085420980e+02
9.967212424226840062e-01 2.063382878082427965e+02 2.059820931247088254e+02
1.055351903741665431e+00 2.408767752634870476e+02 2.405242981236458490e+02
1.113982565060646746e+00 2.801945548646573343e+02 2.798419910966933344e+02
1.172613226379628060e+00 3.229629973279766091e+02 3.226131706943713766e+02
1.231243887698609596e+00 3.702276529377268730e+02 3.698798719120350142e+02
1.289874549017590910e+00 4.212045639007515661e+02 4.208598479179597120e+02
1.348505210336572446e+00 4.789230404753373591e+02 4.785771129311062282e+02
1.407135871655553760e+00 5.408952024609893670e+02 5.405490833750191086e+02
1.465766532974535075e+00 6.092979129924445942e+02 6.089478321373392191e+02
1.524397194293516611e+00 6.834794160189578633e+02 6.831248478905092725e+02

