1.230280400926574008e-01 9.649791100590283222e+00 9.078392815524745529e+00
1.845420601389861082e-01 2.045431253400399285e+01 1.990266921745670459e+01
2.460560801853148016e-01 4.759998554176866747e+01 4.694808121705752768e+01
3.075701002316434951e-01 9.245484086192850270e+01 9.159907702433766019e+01
3.690841202779722163e-01 1.592062451649601940e+02 1.581925896134534355e+02
4.305981403243009376e-01 2.522829813682443501e+02 2.511171372221935485e+02
4.921121603706296033e-01 3.760745615209106063e+02 3.747612331091053761e+02
5.536261804169583245e-01 5.349654426409276766e+02 5.335133882802363132e+02
6.151402004632869902e-01 7.333465519241802895e+02 7.317621126031656331e+02
6.766542205096156559e-01 9.756014108635293951e+02 9.738959153200607943e+02
7.381682405559443216e-01 1.266129853769562033e+03 1.264303305306456195e+03
7.996822606022730984e-01 1.609311916409888909e+03 1.607372791211454114e+03
8.611962806486017641e-01 2.009544232554167593e+03 2.007492881538203847e+03
9.227103006949304298e-01 2.471215660319194740e+03 2.469052084692350036e+03
9.842243207412592065e-01 2.998699797526378916e+03 2.996438909012389558e+03
1.045738340787587983e+00 3.596399346649636300e+03 3.594041862789369134e+03
1.107252360833916649e+00 4.268703532691309192e+03 4.266249454280014106e+03
1.168766380880245315e+00 5.020002046103870271e+03 5.017450191715752226e+03
1.230280400926573980e+00 5.854687589001662673e+03 5.852032583309020083e+03
1.291794420972902646e+00 6.777143294160787264e+03 6.774385137257774659e+03
1.353308441019231312e+00 7.791757669823659853e+03 7.788896361748773415e+03

