5.863066131898141131e-02 1.380628786067350955e+00 1.322746659218600795e+00
1.172613226379628226e-01 4.741469653944118789e+00 4.630857613935636330e+00
1.758919839569442201e-01 1.364685277772337635e+01 1.344219906518316598e+01
2.345226452759256452e-01 2.757046485238818434e+01 2.731447032168355094e+01
2.931533065949070704e-01 4.926598990706524006e+01 4.895716877741959649e+01
3.517839679138884956e-01 8.349706663344809954e+01 8.310936435095194952e+01
4.104146292328698653e-01 1.221793646785708205e+02 1.217870171016835741e+02
4.690452905518512905e-01 1.714249178110548542e+02 1.710267773115962200e+02
5.276759518708327157e-01 2.437399086183212660e+02 2.433016939678722395e+02
5.863066131898141409e-01 3.301386422097278910e+02 3.296729450156442454e+02
6.449372745087955661e-01 4.450573215920869075e+02 4.445460113044306354e+02
7.035679358277769913e-01 5.835398286455434800e+02 5.829806266781741897e+02
7.621985971467583054e-01 7.379428199877618226e+02 7.373669560564895846e+02
8.208292584657397306e-01 9.228244861913310615e+02 9.222241916592960251e+02
8.794599197847211558e-01 1.131855593656503515e+03 1.131235219734465545e+03
9.380905811037025810e-01 1.390901804692113728e+03 1.390245004416937491e+03
9.967212424226840062e-01 1.668985647775115240e+03 1.668313729578469747e+03
1.055351903741665431e+00 1.994275224249308621e+03 1.993576241456194566e+03
1.113982565060646746e+00 2.369306989479654021e+03 2.368573999303772780e+03
1.172613226379628060e+00 2.767467065311849638e+03 2.766717897641145555e+03
1.231243887698609596e+00 3.205449216443498699e+03 3.204686228843439494e+03
1.289874549017590910e+00 3.707274101239347146e+03 3.706489305547080221e+03
1.348505210336572446e+00 4.224690361657727408e+03 4.223899563037021835e+03
1.407135871655553760e+00 4.816245325282200611e+03 4.815435581922803067e+03
1.465766532974535075e+00 5.462074887729567308e+03 5.461242191738479960e+03
1.524397194293516611e+00 6.125515467345871002e+03 6.124672866897291897e+03
1.583027855612497925e+00 6.851224153327252679e+03 6.850366383428912741e+03
1.641658516931479461e+00 7.668270195564266942e+03 7.667391677597803209e+03
1.700289178250460775e+00 8.530576253605930106e+03 8.529678402333103804e+03
1.758919839569442312e+00 9.449535369226678085e+03 9.448619241852997220e+03
1.817550500888423626e+00 1.042466146687532273e+04 1.042371765295379919e+04
1.876181162207405162e+00 1.145742755467156894e+04 1.145645496023934174e+04
1.934811823526386476e+00 1.260792811813045046e+04 1.260691622977872794e+04
1.993442484845367790e+00 1.377448191234712249e+04 1.377344222559245645e+04
2.052073146164349549e+00 1.499798323617054666e+04 1.499691765061703882e+04
2.110703807483330863e+00 1.630026217226515109e+04 1.629917016771785711e+04
2.169334468802312177e+00 1.775295668979549009e+04 1.775182571420331806e+04
2.227965130121293491e+00 1.925170517226723314e+04 1.925053757715702159e+04
2.286595791440274805e+00 2.078107196564175320e+04 2.077987161548295626e+04
2.345226452759256563e+00 2.247163070500195681e+04 2.247038754463005171e+04
2.403857114078237878e+00 3.002637369623543782e+04 3.002508018752545104e+04
2.462487775397219192e+00 6.293816967752922938e+04 6.293760952124357573e+04
2.521118436716200506e+00 1.513898638070820016e+05 1.513892191271772899e+05
2.579749098035181820e+00 3.344510007176212966e+05 3.344503292956458754e+05
2.638379759354163578e+00 6.009091576636744430e+05 6.009082230407521129e+05
2.697010420673144893e+00 9.112837883677405771e+05 9.112824987557679415e+05
2.755641081992126207e+00 1.425744502578414045e+06 1.425742644976241980e+06
2.814271743311107521e+00 3.080794218850437552e+06 3.080789929360636976e+06
