6.468145248521763035e-02 1.119544243460206978e+00 5.818337153444352872e-01
1.293629049704352607e-01 2.233693031074480917e+00 1.429288232158378413e+00
1.940443574556529049e-01 5.951744002862469074e+00 4.994403345735934252e+00
2.587258099408705214e-01 1.182718182874076263e+01 1.085348835430918690e+01
3.234072624260881379e-01 1.928377040296331302e+01 1.850327244089574563e+01
3.880887149113057544e-01 3.110348832439104072e+01 3.039471857618886830e+01
4.527701673965234264e-01 4.606362810329446233e+01 4.545742761970100076e+01
5.174516198817410428e-01 6.404015600684530796e+01 6.352535850827704422e+01
5.821330723669586593e-01 8.894508874253793351e+01 8.846109977990633411e+01
6.468145248521762758e-01 1.204903613615632025e+02 1.200206630650189652e+02
7.114959773373938923e-01 1.597151881233111794e+02 1.592532584492383592e+02
7.761774298226115087e-01 2.081279505321434442e+02 2.076621590281891940e+02
8.408588823078292362e-01 2.657070355468552521e+02 2.652395919164580391e+02
9.055403347930468527e-01 3.332142516676198625e+02 3.327453781277592952e+02
9.702217872782644692e-01 4.097584628781002039e+02 4.092895151478393245e+02
1.034903239763482086e+00 4.945873980822161684e+02 4.941238696913015360e+02
1.099584692248699813e+00 5.986864546164820240e+02 5.982116698522250999e+02
1.164266144733917541e+00 7.101924304141753055e+02 7.097142017480883851e+02
1.228947597219135046e+00 8.440059900724144200e+02 8.435104367290748542e+02
1.293629049704352774e+00 9.843122455931594459e+02 9.838103468655928054e+02
1.358310502189570279e+00 1.144929476138678183e+03 1.144419907150395602e+03
1.422991954674788007e+00 1.323146447388478009e+03 1.322623605259920168e+03
1.487673407160005512e+00 1.518499866720659384e+03 1.517960318314584583e+03
1.552354859645223240e+00 1.724421102507832757e+03 1.723870793083408898e+03
1.617036312130440967e+00 1.960569384849544576e+03 1.960000138067864555e+03
1.681717764615658472e+00 2.209926702196156839e+03 2.209343187442492308e+03
1.746399217100876200e+00 2.474310273543587300e+03 2.473715251479323797e+03
1.811080669586093705e+00 2.767713627460660518e+03 2.767092710455335691e+03
1.875762122071311433e+00 3.075790770067963876e+03 3.075144978228614946e+03
1.940443574556528938e+00 3.398652195503312214e+03 3.397984522063216900e+03
2.005125027041746666e+00 3.765116479986278591e+03 3.764416167563574163e+03
2.069806479526964171e+00 4.156648868838122326e+03 4.155916337019315506e+03
2.134487932012181677e+00 4.544895548307024910e+03 4.544143242989778628e+03
2.199169384497399182e+00 4.972624761402138574e+03 4.971845627923022221e+03
2.263850836982617132e+00 5.412265146888067648e+03 5.411454256437475124e+03
2.328532289467834637e+00 5.901441859950335129e+03 5.900591525533015556e+03
2.393213741953052143e+00 6.420354699468725812e+03 6.419464798679430714e+03
2.457895194438269648e+00 6.945459244867396592e+03 6.944536488279481091e+03
2.522576646923487598e+00 7.523618454156715416e+03 7.522654252020674903e+03
2.587258099408705103e+00 8.121581214118788921e+03 8.120579586215581912e+03
2.651939551893922609e+00 1.056296722746007981e+04 1.056198418846195091e+04
2.716621004379140558e+00 2.019312056457715516e+04 2.019269397883895726e+04
2.781302456864358064e+00 4.321829122103837290e+04 4.321784717501734121e+04
2.845983909349575569e+00 7.413142782038715086e+04 7.413086078832381463e+04
2.910665361834793075e+00 1.359439019981090096e+05 1.359433012890130340e+05
2.975346814320011024e+00 1.934803112318904023e+05 1.934795167188843479e+05
3.040028266805228530e+00 3.110449226706057088e+05 3.110439012529400643e+05
3.104709719290446035e+00 4.690523828275874839e+05 4.690509573236912838e+05
3.169391171775663985e+00 7.415680839077873388e+05 7.415658186114775017e+05
3.234072624260881490e+00 1.189264077403591247e+06 1.189260297910042340e+06
